TAREA FINAL
…
Resumen (Instale kableExtra para insertar un scroll box pero algo salio mal, pero debajo del ambiente si puedo ver la tabla con scroll, pero tube que desinstalarlo porque me marcaba error al correr los chunks)

## # A tibble: 68 x 8
## # Groups:   Ejecutivo...11, Sucursal, Descripcion_Ramo, Agente [33]
##    Ejecutivo...11 Sucursal Descripcion_Ramo Agente Prima_Convertida Adeudos
##    <chr>          <chr>    <chr>             <dbl>            <dbl>   <int>
##  1 AMELIA GUERRE~ E00      DIVERSOS          11220             101.       1
##  2 AMELIA GUERRE~ E00      DIVERSOS          11220           15182.       1
##  3 AMELIA GUERRE~ E00      DIVERSOS          11220           29812        1
##  4 AMELIA GUERRE~ E00      DIVERSOS          12318           18365.       1
##  5 ANGEL PUON     D00      AUTOMOVILES        1532             332.       1
##  6 ANGEL PUON     D00      AUTOMOVILES        7994            5405.       1
##  7 ANGEL PUON     D00      AUTOMOVILES        7994            5845.       1
##  8 ANGEL PUON     D00      AUTOMOVILES        7994            5872.       1
##  9 ANGEL PUON     D00      AUTOMOVILES        7994            8255.       1
## 10 ANGEL PUON     D00      AUTOMOVILES        7994            8826.       1
## # ... with 58 more rows, and 2 more variables: Prima_Prom <dbl>,
## #   Cumplimiento_prom <dbl>
…
